%YAML 1.1
%TAG !u! tag:unity3d.com,2011:
--- !u!1045 &1
EditorBuildSettings:
  m_ObjectHideFlags: 0
  serializedVersion: 2
  m_Scenes:
  - enabled: 1
    path: Assets/Scenes/Stages of life/Youth.unity
    guid: acf50f178f138cd44880c400ba697ed7
  - enabled: 1
    path: Assets/Scenes/Stages of life/Adolescence.unity
    guid: 42dc0314f6749094382b0a1b2861b3f7
  - enabled: 1
    path: Assets/Scenes/Stages of life/Adulthood.unity
    guid: 26940e2f1a30031489974b4f9a6a23ad
  - enabled: 1
    path: Assets/Scenes/Stages of life/End.unity
    guid: 84153869b4961d14091b92a67cd47579
  m_configObjects: {}
